
dialect  "mvel"
import metrics.server.util.Version
import java.util.Map
import com.rabbitmq.client.ConnectionFactory
import metrics.server.io.latent.storm.rabbitmq.config.ConnectionConfig
import metrics.server.io.latent.storm.rabbitmq.config.ConsumerConfig
import metrics.server.io.latent.storm.rabbitmq.config.ConsumerConfigBuilder
import metrics.server.engine.calculation.CalculationEngineConfig
import java.util.Iterator
import java.util.List
import java.lang.reflect.Method
import java.lang.reflect.InvocationTargetException

rule "ACTIVITY_DP"
lock-on-active
    when
        $calculationEngine : CalculationEngineConfig($calculationEngine.getName() == "ACTIVITY_DP")
    then
        $calculationEngine.setResult(calculateAverageDP($calculationEngine.getList(),$calculationEngine.getBeanClass()));
        update($calculationEngine);
        //$calculationEngine.getName();
        //$iterator = $calculationEngine.getList().iterator();
end

function double calculateAverageDP(List list, Class beanClass){
    double sum = 0;
    for(Object element : list){
        Method itemCountMethod = null;
        double itemCount = 0;
        try{
            itemCountMethod = beanClass.getMethod("getItemCount");
        }catch(Exception e){
            System.out.println(e.getStackTrace());
        }

        if(itemCountMethod != null){
            try {
                itemCount = ((Integer)itemCountMethod.invoke(element,null)).doubleValue();
                //System.out.println("value is "+itemCount);
                sum += itemCount;
            }
            catch (IllegalAccessException e) {
                e.printStackTrace();
            } catch (InvocationTargetException e) {
                e.printStackTrace();
            }
        }else{
            System.out.println("itemCountMethod does not exist");
        }
    }
    System.out.println("length = "+list.size());
    return sum/list.size();
}


rule "CalculationEngineRule"
    when $v : Version (major >= 2)
    then System.out.println($v.getMajor());
end

//rule "test"
//    when s: String(this == "witsml")
//    then
////    metrics.server.io.latent.storm.rabbitmq.config.ConnectionConfig connectionConfig = new ConnectlionConfig("localhost", 5672, "guest", "guest", ConnectionFactory.DEFAULT_VHOST, 10); // host, port, username, password, virtualHost, heartBeat
////            ConsumerConfig spoutConfig = new ConsumerConfigBuilder().connection(connectionConfig)
////                    .queue("all.log.witsml")
////                    .prefetch(20000)
////                    .requeueOnFail()
////                    .build();
////            Map<String, Object> stringObjectMap = spoutConfig.asMap();
//
//end


//
//
//
//rule "test"
//    when
//        s: String (this == "sea")
//    then
//
//end
//
//rule "test2"
//    when
//        s: String (this =="subscriber")
//    then
//end