import metrics.server.engine.calculation.CalculationEngineConfig
import java.lang.reflect.Method
import java.util.Iterator
import java.util.List
import java.util.Set
import java.util.HashSet
dialect  "mvel"

rule "NOU"
    when
        $calculationEngine : CalculationEngineConfig($calculationEngine.getName() == "nou")
    then

        $calculationEngine.setResult(getUniqueUserCount($calculationEngine.getList(),$calculationEngine.getBeanClass()));
        update($calculationEngine);

end

function int getUniqueUserCount(List list, Class classType){
    Set<String> userSet = new HashSet();
    for(Object element : list){
        try {
            Method method = classType.getDeclaredMethod("getRequestedGUID",null);
            Object invoke = method.invoke(element);
            userSet.add(invoke.toString().trim().toUpperCase());
        } catch (NoSuchMethodException e) {
            e.printStackTrace();
        } catch(Exception e){
            e.printStackTrace();
        }
    }
    return userSet.size();
}
